<svg width="165" height="116" viewBox="0 0 165 116" fill="none" xmlns="http://www.w3.org/2000/svg">
<g clip-path="url(#clip0_113_39)">
<path fill-rule="evenodd" clip-rule="evenodd" d="M164.4 0V112.24H158.4V6L6.01001 6V112.24H0.0100098V0L164.4 0Z" fill="white"/>
<path d="M82 53L92 63" stroke="#5337FF" stroke-width="3" stroke-linecap="round"/>
<path d="M82 63L92 53" stroke="#5337FF" stroke-width="3" stroke-linecap="round"/>
</g>
<defs>
<clipPath id="clip0_113_39">
<rect width="164.39" height="115.24" fill="white"/>
</clipPath>
</defs>
</svg>
